{
	"appName" : {
		"message" : "Mind The Word",
		"description": "The title of the application, displayed in the web store."
	},
	"appDesc" : {
		"message": "Learn languages while browsing the Internet!",
		"description": "The description of the application, displayed in the web store."
	},
	"selectTranslationHeading" : {
		"message": "Select Translation Configuration", 
		"description": "heading over list of translations"
	},
	"newTranslationHeading" : {
		"message": "Create New Translation Configuration", 
		"description": "heading over new translation form"
	},
	"attentionMessage" : {
		"message": "<b>Attention:</b> Google Translate is <i>not free</i>. Yandex is <i>recommended</i>!"
	},
	"translationSettings" : {
		"message": "Translation Settings"
	},
	"adjustmentsDescription" : {
		"message": "Format the translated words according to the following <a href='http://lesliefranke.com/files/reference/csscheatsheet.html' target='_blank'>CSS </a>property-value pairs:"
	}, 
	"blacklistingWebsitesDescription" : {
		"message" : "Do not translate the following websites: "
	}, 
	"blacklistingWordsDescription" : {
		"message" : "Do not translate the following words: "
	}, 
	"userDefinedTranslations" : {
		"message" : "Use the following user-defined translations:"
	},  
	"userLimitedTranslationsCheckbox" : {
		"message" : "This will limit translations to only those provided in the user-defined dictionary. Words not in the dictionary will not be translated."
	}, 
	"basicOptionsTab" : {
		"message" : "Basic Options "
	}, 
	"advancedOptionsTab" : {
		"message" : "Advanced Options "
	}, 
	"contributionsTab" : {
		"message" : "Contributions"
	}, 
	"translationPatterns" : {
		"message" : "Translation Patterns"
	}, 
	"translatorKeys" : {
		"message" : "Translator Keys"
	},
	"createNewPattern" : {
		"message" : "Create a New Pattern"
	},
	"yandexKey" : {
		"message" : "Yandex Key"
	},
	"bingKey" : {
		"message" : "Bing Key"
	},
	"bingClientID" : {
		"message" : "Bing Client ID"
	},
	"bingClientSecret" : {
		"message" : "Bing Client Secret"
	},
	"googleKey" : {
		"message" : "Google Key"
	},
	"createNewPattern" : {
		"message" : "Create a New Pattern"
	},
	"create" : {
		"message" : "Create"
	},
	"add" : {	
		"message" : "Add"
	},
	"blacklistWebsites" : {	
		"message" : "Blacklist Websites"
	},
	"blacklistWords" : {	
		"message" : "Blacklist Words"
	},
	"automaticBlacklisting" : {	
		"message" : "Automatic Blacklisting"
	},
	"savedTranslations" : {	
		"message" : "Saved Translations"
	},
	"learntWords" : {	
		"message" : "Learnt Words"
	},
	"difficultyBuckets" : {	
		"message" : "Difficulty Buckets"
	},
	"noSavedTranslations" : {	
		"message" : "No Saved Translations"
	},
	"noWordsLearnt" : {	
		"message" : "No Words Learnt"
	},
	"emptyDifficultyBuckets" : {	
		"message" : "Empty Difficulty Buckets"
	},
	"colorSettings" : {	
		"message" : "Color Settings"
	},
	"wordConfiguration" : {	
		"message" : "Word Configuration"
	},
	"userDefinedTranslations" : {	
		"message" : "User Defined Translations"
	},
	"playbackSettings" : {	
		"message" : "Playback Settings"
	},
	"backup" : {	
		"message" : "Backup"
	},
	"restore" : {	
		"message" : "Restore"
	},
	"dangerZone" : {	
		"message" : "Danger Zone"
	},
	"patternWiseStats" : {	
		"message" : "Pattern wise stats"
	},
	"letsTalkNumbers" : {	
		"message" : "Let's talk numbers!"
	},
	"chooseCorrectTranslations" : {	
		"message" : "Choose The Correct Translations"
	},
	"contribute" : {	
		"message" : "Contribute"
	},
	"support" : {	
		"message" : "Support"
	},
	"translation" : {	
		"message" : "Translation"
	},
	"blacklist" : {	
		"message" : "Blacklist"
	},
	"learning" : {	
		"message" : "Learning"
	},
	"advanced" : {	
		"message" : "Advanced"
	},
	"statistics" : {	
		"message" : "Statistics"
	},
	"quiz" : {	
		"message" : "Quiz"
	},
	"troubleshooting" : {
		"message" : "Troubleshooting"
	}
}




